{
	"type" : "object",
	"properties" : {
		"Button" : {
			"oneOf" : [
				{ "$ref": "#/definitions/AbstractFieldSchema" }
			]
		},
		"CheckBox" : {
			"oneOf" : [
				{ "$ref": "#/definitions/AbstractFieldSchema" }
			]
		},
		"TextField" : {
			"oneOf" : [
				{ "$ref": "#/definitions/AbstractFieldSchema" }
			]
		},
		"DateField" : {
			"oneOf" : [
				{ "$ref": "#/definitions/AbstractFieldSchema" }
			]
		},
		"ComboBox" : {
			"oneOf" : [
				{ "$ref": "#/definitions/AbstractFieldSchema" }
			]
		},
		"MenuBar" : {
			"oneOf" : [
				{ "$ref": "#/definitions/MenuBar" }
			]
		},
		"Table" : {
			"oneOf" : [
				{ "$ref": "#/definitions/Table" }
			]
		},
		"TabSheet" : {
			"oneOf" : [
				{ "$ref": "#/definitions/TabSheet" }
			]
		},
		"HorizontalLayout" : {
			"oneOf" : [
				{ "$ref": "#/definitions/AbstractOrderedLayout" }
			]
		},
		"VerticalLayout" : {
			"oneOf" : [
				{ "$ref": "#/definitions/AbstractOrderedLayout" }
			]
		}
	},
	"additionalProperties" : false,
	"minProperties" : 1,
	"definitions":{  
      "Component":{  
         "type":"object",
         "properties":{  
            "id":{  
               "type":"string"
            },
            "caption":{  
               "type":"string"
            },
            "description":{  
               "type":"string"
            },
            "iconPath":{  
               "type":"string"
            },
            "styleName":{  
               "type":"string"
            },
            "enabled":{  
               "type":"boolean"
            },
            "readOnly":{  
               "type":"boolean"
            },
            "visible":{  
               "type":"boolean"
            },
            "width":{  
               "type":"object",
               "properties":{  
                  "width":{  
                     "type":"number",
                     "minimum":0
                  },
                  "unit":{  
                     "enum":[  
                        "px",
                        "%"
                     ]
                  }
               },
               "additionalProperties" : false
            },
            "height":{  
               "type":"object",
               "properties":{  
                  "height":{  
                     "type":"number",
                     "minimum":0
                  },
                  "unit":{  
                     "enum":[  
                        "px",
                        "%"
                     ]
                  }
               },
               "additionalProperties" : false
            }
         }
      },
       "AbstractFieldSchema":{  
         "allOf":[  
            { "$ref":"#/definitions/Component" }
         ],
         "properties":{  
            "id":{ },
            "caption":{ },
            "description":{ },
            "iconPath":{ },
            "styleName":{ },
            "enabled":{ },
            "readOnly":{ },
            "visible":{ },
            "width":{ },
            "height":{ },
            "value":{  
               "type":"string"
            }
         },
         "additionalProperties" : false
      },
      "AbstractOrderedLayout":{  
         "allOf":[  
            { "$ref":"#/definitions/Component" }
         ],
         "properties":{  
         	"id":{ },
            "caption":{ },
            "description":{ },
            "iconPath":{ },
            "styleName":{ },
            "enabled":{ },
            "readOnly":{ },
            "visible":{ },
            "width":{ },
            "height":{ },
            "spacing" : {
            	"type" : "boolean"
            },
            "margin" : {
            	"type" : "boolean"
            },
            "components" : {
				"type" : "array",
				"items" : {
					"type" : "object",
					"oneOf" : [
						{ "$ref": "#" }
					]
				},
				"minItems": 1
			},
			"alignments" : {
				"type" : "array",
				"items" : {
					"type" : "object",
					"oneOf" : [
						{ "$ref" : "#/definitions/Alignment" }
					]
				},
				"minItems" : 1
			},
			"expandRatio" : {
				"type" : "array",
				"items" : {
					"type" : "object",
					"oneOf" : [
						{ "$ref" : "#/definitions/ExpandRatio"}
					]
				},
				"minItems" : 1
			}
         },
         "additionalProperties" : false
      },
      "MenuBar":{  
         "allOf":[  
            { "$ref":"#/definitions/Component" }
         ],
         "properties":{  
            "id":{ },
            "caption":{ },
            "description":{ },
            "iconPath":{ },
            "styleName":{ },
            "enabled":{ },
            "readOnly":{ },
            "visible":{ },
            "width":{ },
            "height":{ },
            "menuItems":{
            	"type" : "array",
            	"minItems" : 1,
            	"items" : {
            		"type" : "object",
            		"oneOf" : [
            			{ "$ref" : "#/definitions/MenuItem" }
            		]
            	}
            }
         },
         "additionalProperties" : false
      },
       "MenuItem" : {
      	"properties":{ 
	      	"styleName" : {
	      		"type" : "string"
	      	},
	      	"text" : {
	      		"type" : "string"
	      	},
	      	"iconPath" : {
	      		"type" : "string"
	      	},
	      	"separator" : {
	      		"type" : "boolean"
	      	},
	      	"enabled" : {
	      		"type" : "boolean"
	      	},
	      	"visible" : {
	      		"type" : "boolean"
	      	},
	      	"menuItems" : {
	      		"type" : "array",
	      		"minItems" : 1,
	      		"items" : {
	      			"type" : "object",
	            	"oneOf" : [
	            		{ "$ref" : "#/definitions/MenuItem" }
	           		]
	      		}
	      	}
	  	},
	  	"required" : ["text"]
      },
      "Table":{  
         "allOf":[  
            { "$ref":"#/definitions/Component" }
         ],
         "properties":{  
            "id":{ },
            "caption":{ },
            "description":{ },
            "iconPath":{ },
            "styleName":{ },
            "enabled":{ },
            "readOnly":{ },
            "visible":{ },
            "width":{ },
            "height":{ },
            "columns":{
            	"type" : "array",
            	"minItems" : 1,
            	"items" : {
            		"type" : "object",
            		"oneOf" : [
            			{ "$ref" : "#/definitions/Column" }
            		]
            	}
            }
         },
         "additionalProperties" : false
      },
      "Column" : {
      	"properties":{ 
	      	"propertyId" : {
	      		"type" : "string"
	      	},
	      	"header" : {
	      		"type" : "string"
	      	},
	      	"columnType" : {
	      		"enum" : [
	      			"String",
	      			"Integer",
	      			"Float",
	      			"Double",
	      			"Boolean"
	      		]
	      	},
	      	"defaultValue" : {
	      		"type" : "string"
	      	}
	  	},
	  	"required" : ["propertyId", "columnType"]
      },
      "TabSheet":{  
         "allOf":[  
            { "$ref":"#/definitions/Component" }
         ],
         "properties":{  
            "id":{ },
            "caption":{ },
            "description":{ },
            "iconPath":{ },
            "styleName":{ },
            "enabled":{ },
            "readOnly":{ },
            "visible":{ },
            "width":{ },
            "height":{ },
            "tabs":{
            	"type" : "array",
            	"minItems" : 1,
            	"items" : {
            		"type" : "object",
            		"oneOf" : [
            			{ "$ref" : "#/definitions/Tab" }
            		]
            	}
            }
         },
         "additionalProperties" : false
      },
      "Tab" : {
      	"properties":{ 
	      	"caption" : {
	      		"type" : "string"
	      	},
	      	"icon" : {
	      		"type" : "string"
	      	},
	      	"content" : {
	      		"type" : "object",
	      		"oneOf" : [
	      			{ "$ref" : "#" }
	      		]
	      	}
	  	},
	  	"required" : ["content", "caption"],
        "additionalProperties" : false
      },
      "Alignment" : {
      	"type" : "object",
      	"properties" : {
      		"componentId" : {
      			"type" : "string"
      		},
      		"alignment" : {
      			"enum" : [
      				"TOP_LEFT",
      				"TOP_CENTER",
      				"TOP_RIGHT",
      				"MIDDLE_LEFT",
      				"MIDDLE_CENTER",
      				"MIDDLE_RIGHT",
      				"BOTTOM_LEFT",
      				"BOTTOM_CENTER",
      				"BOTTOM_RIGHT"
      			] 
      		}
      	},
      	"additionalProperties" : false
      },
      "ExpandRatio" : {
      	"type" : "object",
      	"properties" : {
      		"componentId" : {
      			"type" : "string"
      		},
      		"expandRatio" : {
      			"type" : "number",
      			"minimum" : 0
      		}
      	}
      }
   }
}