{  
   "definitions":{  
      "Component":{  
         "type":"object",
         "properties":{  
            "id":{  
               "type":"string"
            },
            "caption":{  
               "type":"string"
            },
            "description":{  
               "type":"string"
            },
            "iconPath":{  
               "type":"string"
            },
            "styleName":{  
               "type":"string"
            },
            "enabled":{  
               "type":"boolean"
            },
            "readOnly":{  
               "type":"boolean"
            },
            "visible":{  
               "type":"boolean"
            },
            "width":{  
               "type":"object",
               "properties":{  
                  "width":{  
                     "type":"number",
                     "minimum":0
                  },
                  "unit":{  
                     "enum":[  
                        "px",
                        "%"
                     ]
                  }
               },
               "additionalProperties" : false
            },
            "height":{  
               "type":"object",
               "properties":{  
                  "height":{  
                     "type":"number",
                     "minimum":0
                  },
                  "unit":{  
                     "enum":[  
                        "px",
                        "%"
                     ]
                  }
               },
               "additionalProperties" : false
            }
         }
      }
   }
}